-------------------------------------------------------------------------------
Test set: com.bbva.ccol.warranty.business.dto.DTOInternalTest
-------------------------------------------------------------------------------
Tests run: 1, Failures: 0, Errors: 0, Skipped: 0, Time elapsed: 0.498 sec
